~~~~~~~~~~~~~~~~~~~~~~~~~~~~~~~~~~~~~~~~~~~~~~~~~~~~~~~~~~~~~~~~~~~~~~~~~~~~~~
Constants.html
Traceback (most recent call last):
  File "/var/www/moin-1.9.8/MoinMoin/script/export/dump.py", line 199, in mainloop
    pagehtml = request.redirectedOutput(page.send_page, count_hit=0, content_only=1)
  File "/var/www/moin-1.9.8/MoinMoin/web/contexts.py", line 296, in redirectedOutput
    function(*args, **kw)
  File "/var/www/moin-1.9.8/MoinMoin/Page.py", line 1332, in send_page
    start_line=pi['lines'])
  File "/var/www/moin-1.9.8/MoinMoin/Page.py", line 1431, in send_page_content
    code = self.makeCache(request, parser)
  File "/var/www/moin-1.9.8/MoinMoin/Page.py", line 1491, in makeCache
    text = request.redirectedOutput(parser.format, formatter)
  File "/var/www/moin-1.9.8/MoinMoin/web/contexts.py", line 296, in redirectedOutput
    function(*args, **kw)
  File "/var/www/moin-1.9.8/MoinMoin/parser/text_moin_wiki.py", line 1554, in format
    formatted_line = self.scan(line, inhibit_p=inhibit_p)
  File "/var/www/moin-1.9.8/MoinMoin/parser/text_moin_wiki.py", line 1364, in scan
    result.append(self.replace(match, inhibit_p))
  File "/var/www/moin-1.9.8/MoinMoin/parser/text_moin_wiki.py", line 1408, in replace
    result.append(replace_func(hit, match.groupdict()))
  File "/var/www/moin-1.9.8/MoinMoin/parser/text_moin_wiki.py", line 1331, in _macro_repl
    return self.formatter.macro(self.macro, macro_name, macro_args, markup=groups.get('macro'))
  File "/var/www/moin-1.9.8/MoinMoin/formatter/text_python.py", line 189, in macro
    if self.__is_static(macro_obj.get_dependencies(name)):
  File "/var/www/moin-1.9.8/MoinMoin/macro/__init__.py", line 168, in get_dependencies
    macro_name, 'Dependencies')
  File "/var/www/moin-1.9.8/MoinMoin/wikiutil.py", line 1063, in importPlugin
    return importWikiPlugin(cfg, kind, name, function)
  File "/var/www/moin-1.9.8/MoinMoin/wikiutil.py", line 1078, in importWikiPlugin
    return importNameFromPlugin(moduleName, function)
  File "/var/www/moin-1.9.8/MoinMoin/wikiutil.py", line 1102, in importNameFromPlugin
    module = __import__(moduleName, globals(), {}, fromlist)
  File "/var/www/wikis.scilab.org/public/data/plugin/macro/Important.py", line 10, in <module>
    from MoinAttentionBoxes import main
  File "/var/www/wikis.scilab.org/public/data/plugin/macro/MoinAttentionBoxes/main.py", line 99, in <module>
    from MoinMoin.parser.wiki import Parser
ImportError: No module named wiki
~~~~~~~~~~~~~~~~~~~~~~~~~~~~~~~~~~~~~~~~~~~~~~~~~~~~~~~~~~~~~~~~~~~~~~~~~~~~~~
Structure(20)of(20)a(20)program.html
Traceback (most recent call last):
  File "/var/www/moin-1.9.8/MoinMoin/script/export/dump.py", line 199, in mainloop
    pagehtml = request.redirectedOutput(page.send_page, count_hit=0, content_only=1)
  File "/var/www/moin-1.9.8/MoinMoin/web/contexts.py", line 296, in redirectedOutput
    function(*args, **kw)
  File "/var/www/moin-1.9.8/MoinMoin/Page.py", line 1332, in send_page
    start_line=pi['lines'])
  File "/var/www/moin-1.9.8/MoinMoin/Page.py", line 1431, in send_page_content
    code = self.makeCache(request, parser)
  File "/var/www/moin-1.9.8/MoinMoin/Page.py", line 1491, in makeCache
    text = request.redirectedOutput(parser.format, formatter)
  File "/var/www/moin-1.9.8/MoinMoin/web/contexts.py", line 296, in redirectedOutput
    function(*args, **kw)
  File "/var/www/moin-1.9.8/MoinMoin/parser/text_moin_wiki.py", line 1554, in format
    formatted_line = self.scan(line, inhibit_p=inhibit_p)
  File "/var/www/moin-1.9.8/MoinMoin/parser/text_moin_wiki.py", line 1364, in scan
    result.append(self.replace(match, inhibit_p))
  File "/var/www/moin-1.9.8/MoinMoin/parser/text_moin_wiki.py", line 1408, in replace
    result.append(replace_func(hit, match.groupdict()))
  File "/var/www/moin-1.9.8/MoinMoin/parser/text_moin_wiki.py", line 1331, in _macro_repl
    return self.formatter.macro(self.macro, macro_name, macro_args, markup=groups.get('macro'))
  File "/var/www/moin-1.9.8/MoinMoin/formatter/text_python.py", line 189, in macro
    if self.__is_static(macro_obj.get_dependencies(name)):
  File "/var/www/moin-1.9.8/MoinMoin/macro/__init__.py", line 168, in get_dependencies
    macro_name, 'Dependencies')
  File "/var/www/moin-1.9.8/MoinMoin/wikiutil.py", line 1063, in importPlugin
    return importWikiPlugin(cfg, kind, name, function)
  File "/var/www/moin-1.9.8/MoinMoin/wikiutil.py", line 1078, in importWikiPlugin
    return importNameFromPlugin(moduleName, function)
  File "/var/www/moin-1.9.8/MoinMoin/wikiutil.py", line 1102, in importNameFromPlugin
    module = __import__(moduleName, globals(), {}, fromlist)
  File "/var/www/wikis.scilab.org/public/data/plugin/macro/Warning.py", line 10, in <module>
    from MoinAttentionBoxes import main
  File "/var/www/wikis.scilab.org/public/data/plugin/macro/MoinAttentionBoxes/main.py", line 99, in <module>
    from MoinMoin.parser.wiki import Parser
ImportError: No module named wiki
~~~~~~~~~~~~~~~~~~~~~~~~~~~~~~~~~~~~~~~~~~~~~~~~~~~~~~~~~~~~~~~~~~~~~~~~~~~~~~
Variables(20)and(20)Data(20)Types.html
Traceback (most recent call last):
  File "/var/www/moin-1.9.8/MoinMoin/script/export/dump.py", line 199, in mainloop
    pagehtml = request.redirectedOutput(page.send_page, count_hit=0, content_only=1)
  File "/var/www/moin-1.9.8/MoinMoin/web/contexts.py", line 296, in redirectedOutput
    function(*args, **kw)
  File "/var/www/moin-1.9.8/MoinMoin/Page.py", line 1332, in send_page
    start_line=pi['lines'])
  File "/var/www/moin-1.9.8/MoinMoin/Page.py", line 1431, in send_page_content
    code = self.makeCache(request, parser)
  File "/var/www/moin-1.9.8/MoinMoin/Page.py", line 1491, in makeCache
    text = request.redirectedOutput(parser.format, formatter)
  File "/var/www/moin-1.9.8/MoinMoin/web/contexts.py", line 296, in redirectedOutput
    function(*args, **kw)
  File "/var/www/moin-1.9.8/MoinMoin/parser/text_moin_wiki.py", line 1554, in format
    formatted_line = self.scan(line, inhibit_p=inhibit_p)
  File "/var/www/moin-1.9.8/MoinMoin/parser/text_moin_wiki.py", line 1364, in scan
    result.append(self.replace(match, inhibit_p))
  File "/var/www/moin-1.9.8/MoinMoin/parser/text_moin_wiki.py", line 1408, in replace
    result.append(replace_func(hit, match.groupdict()))
  File "/var/www/moin-1.9.8/MoinMoin/parser/text_moin_wiki.py", line 1331, in _macro_repl
    return self.formatter.macro(self.macro, macro_name, macro_args, markup=groups.get('macro'))
  File "/var/www/moin-1.9.8/MoinMoin/formatter/text_python.py", line 189, in macro
    if self.__is_static(macro_obj.get_dependencies(name)):
  File "/var/www/moin-1.9.8/MoinMoin/macro/__init__.py", line 168, in get_dependencies
    macro_name, 'Dependencies')
  File "/var/www/moin-1.9.8/MoinMoin/wikiutil.py", line 1063, in importPlugin
    return importWikiPlugin(cfg, kind, name, function)
  File "/var/www/moin-1.9.8/MoinMoin/wikiutil.py", line 1078, in importWikiPlugin
    return importNameFromPlugin(moduleName, function)
  File "/var/www/moin-1.9.8/MoinMoin/wikiutil.py", line 1102, in importNameFromPlugin
    module = __import__(moduleName, globals(), {}, fromlist)
  File "/var/www/wikis.scilab.org/public/data/plugin/macro/Important.py", line 10, in <module>
    from MoinAttentionBoxes import main
  File "/var/www/wikis.scilab.org/public/data/plugin/macro/MoinAttentionBoxes/main.py", line 99, in <module>
    from MoinMoin.parser.wiki import Parser
ImportError: No module named wiki
~~~~~~~~~~~~~~~~~~~~~~~~~~~~~~~~~~~~~~~~~~~~~~~~~~~~~~~~~~~~~~~~~~~~~~~~~~~~~~
howto(2f)use(20)this(20)wiki(2f)infobox.html
Traceback (most recent call last):
  File "/var/www/moin-1.9.8/MoinMoin/script/export/dump.py", line 199, in mainloop
    pagehtml = request.redirectedOutput(page.send_page, count_hit=0, content_only=1)
  File "/var/www/moin-1.9.8/MoinMoin/web/contexts.py", line 296, in redirectedOutput
    function(*args, **kw)
  File "/var/www/moin-1.9.8/MoinMoin/Page.py", line 1332, in send_page
    start_line=pi['lines'])
  File "/var/www/moin-1.9.8/MoinMoin/Page.py", line 1431, in send_page_content
    code = self.makeCache(request, parser)
  File "/var/www/moin-1.9.8/MoinMoin/Page.py", line 1491, in makeCache
    text = request.redirectedOutput(parser.format, formatter)
  File "/var/www/moin-1.9.8/MoinMoin/web/contexts.py", line 296, in redirectedOutput
    function(*args, **kw)
  File "/var/www/moin-1.9.8/MoinMoin/parser/text_moin_wiki.py", line 1554, in format
    formatted_line = self.scan(line, inhibit_p=inhibit_p)
  File "/var/www/moin-1.9.8/MoinMoin/parser/text_moin_wiki.py", line 1364, in scan
    result.append(self.replace(match, inhibit_p))
  File "/var/www/moin-1.9.8/MoinMoin/parser/text_moin_wiki.py", line 1408, in replace
    result.append(replace_func(hit, match.groupdict()))
  File "/var/www/moin-1.9.8/MoinMoin/parser/text_moin_wiki.py", line 1331, in _macro_repl
    return self.formatter.macro(self.macro, macro_name, macro_args, markup=groups.get('macro'))
  File "/var/www/moin-1.9.8/MoinMoin/formatter/text_python.py", line 189, in macro
    if self.__is_static(macro_obj.get_dependencies(name)):
  File "/var/www/moin-1.9.8/MoinMoin/macro/__init__.py", line 168, in get_dependencies
    macro_name, 'Dependencies')
  File "/var/www/moin-1.9.8/MoinMoin/wikiutil.py", line 1063, in importPlugin
    return importWikiPlugin(cfg, kind, name, function)
  File "/var/www/moin-1.9.8/MoinMoin/wikiutil.py", line 1078, in importWikiPlugin
    return importNameFromPlugin(moduleName, function)
  File "/var/www/moin-1.9.8/MoinMoin/wikiutil.py", line 1102, in importNameFromPlugin
    module = __import__(moduleName, globals(), {}, fromlist)
  File "/var/www/wikis.scilab.org/public/data/plugin/macro/Note.py", line 10, in <module>
    from MoinAttentionBoxes import main
  File "/var/www/wikis.scilab.org/public/data/plugin/macro/MoinAttentionBoxes/main.py", line 99, in <module>
    from MoinMoin.parser.wiki import Parser
ImportError: No module named wiki
