<?xml version="1.0" encoding="UTF-8" standalone="no"?>
<svg
   xmlns:dc="http://purl.org/dc/elements/1.1/"
   xmlns:cc="http://creativecommons.org/ns#"
   xmlns:rdf="http://www.w3.org/1999/02/22-rdf-syntax-ns#"
   xmlns:svg="http://www.w3.org/2000/svg"
   xmlns="http://www.w3.org/2000/svg"
   xmlns:sodipodi="http://sodipodi.sourceforge.net/DTD/sodipodi-0.dtd"
   xmlns:inkscape="http://www.inkscape.org/namespaces/inkscape"
   width="610px"
   height="460px"
   viewBox="0 0 610 460"
   id="svg2"
   sodipodi:version="0.32"
   inkscape:version="0.46"
   sodipodi:docname="jacobian_patternO1.svg"
   inkscape:output_extension="org.inkscape.output.svg.inkscape">
  <metadata
     id="metadata927">
    <rdf:RDF>
      <cc:Work
         rdf:about="">
        <dc:format>image/svg+xml</dc:format>
        <dc:type
           rdf:resource="http://purl.org/dc/dcmitype/StillImage" />
      </cc:Work>
    </rdf:RDF>
  </metadata>
  <sodipodi:namedview
     inkscape:window-height="669"
     inkscape:window-width="1239"
     inkscape:pageshadow="2"
     inkscape:pageopacity="0.0"
     guidetolerance="10.0"
     gridtolerance="10.0"
     objecttolerance="10.0"
     borderopacity="1.0"
     bordercolor="#666666"
     pagecolor="#ffffff"
     id="base"
     showgrid="false"
     inkscape:zoom="0.89180328"
     inkscape:cx="305"
     inkscape:cy="230"
     inkscape:window-x="115"
     inkscape:window-y="115"
     inkscape:current-layer="svg2" />
  <title
     id="title4">Graphic window number 0</title>
  <desc
     id="desc6">
Creator: GL2PS 1.3.2, (C) 1999-2006 Christophe Geuzaine (geuz@geuz.org)
For: Scilab
CreationDate: Tue Feb 23 16:14:22 2010
</desc>
  <defs
     id="defs8">
    <inkscape:perspective
       sodipodi:type="inkscape:persp3d"
       inkscape:vp_x="0 : 230 : 1"
       inkscape:vp_y="0 : 1000 : 0"
       inkscape:vp_z="610 : 230 : 1"
       inkscape:persp3d-origin="305 : 153.33333 : 1"
       id="perspective929" />
  </defs>
  <polygon
     fill="#ffffff"
     points="0,0 610,0 610,460 0,460"
     id="polygon10" />
  <polyline
     style="fill:none;stroke:#000000;stroke-width:0.5"
     id="polyline14"
     points="76.25,402.5 76.25,57.5 76.25,57.5 533.75,57.5 533.75,402.5 533.75,402.5 76.25,402.5" />
  <polyline
     style="fill:none;stroke:#000000;stroke-width:0.5"
     id="polyline16"
     points="533.75,57.5 76.25,57.5" />
  <polyline
     style="fill:none;stroke:#000000;stroke-width:0.5"
     id="polyline18"
     points="533.75,57.5 533.75,402.5" />
  <polyline
     style="fill:none;stroke:#000000;stroke-width:0.5"
     id="polyline20"
     points="533.75,57.5 533.75,57.5" />
  <polygon
     style="fill:#ffffff"
     id="polygon22"
     points="76.25,402.5 76.25,57.5 76.25,57.5 76.25,402.5 " />
  <polygon
     style="fill:#ffffff"
     id="polygon24"
     points="76.25,402.5 76.25,57.5 76.25,402.5 " />
  <polygon
     style="fill:#ffffff"
     id="polygon26"
     points="76.25,402.5 533.75,402.5 533.75,402.5 76.25,402.5 " />
  <polygon
     style="fill:#ffffff"
     id="polygon28"
     points="76.25,402.5 533.75,402.5 76.25,402.5 " />
  <polygon
     style="fill:#ffffff"
     id="polygon30"
     points="76.25,402.5 533.75,402.5 533.75,57.5 76.25,402.5 " />
  <polygon
     style="fill:#ffffff"
     id="polygon32"
     points="76.25,402.5 533.75,57.5 76.25,57.5 76.25,402.5 " />
  <polygon
     style="fill:#ffffff"
     id="polygon34"
     points="305.392,226.019 305,226 305,230 305.392,226.019 " />
  <polygon
     style="fill:#ffffff"
     id="polygon36"
     points="305.392,226.019 305,230 305,230 305.392,226.019 " />
  <polygon
     style="fill:#ffffff"
     id="polygon38"
     points="305.78,226.077 305.392,226.019 305,230 305.78,226.077 " />
  <polygon
     style="fill:#ffffff"
     id="polygon40"
     points="305.78,226.077 305,230 305,230 305.78,226.077 " />
  <polygon
     style="fill:#ffffff"
     id="polygon42"
     points="306.161,226.172 305.78,226.077 305,230 306.161,226.172 " />
  <polygon
     style="fill:#ffffff"
     id="polygon44"
     points="306.161,226.172 305,230 305,230 306.161,226.172 " />
  <polygon
     style="fill:#ffffff"
     id="polygon46"
     points="306.531,226.305 306.161,226.172 305,230 306.531,226.305 " />
  <polygon
     style="fill:#ffffff"
     id="polygon48"
     points="306.531,226.305 305,230 305,230 306.531,226.305 " />
  <polygon
     style="fill:#ffffff"
     id="polygon50"
     points="306.886,226.472 306.531,226.305 305,230 306.886,226.472 " />
  <polygon
     style="fill:#ffffff"
     id="polygon52"
     points="306.886,226.472 305,230 305,230 306.886,226.472 " />
  <polygon
     style="fill:#ffffff"
     id="polygon54"
     points="307.222,226.674 306.886,226.472 305,230 307.222,226.674 " />
  <polygon
     style="fill:#ffffff"
     id="polygon56"
     points="307.222,226.674 305,230 305,230 307.222,226.674 " />
  <polygon
     style="fill:#ffffff"
     id="polygon58"
     points="307.538,226.908 307.222,226.674 305,230 307.538,226.908 " />
  <polygon
     style="fill:#ffffff"
     id="polygon60"
     points="307.538,226.908 305,230 305,230 307.538,226.908 " />
  <polygon
     style="fill:#ffffff"
     id="polygon62"
     points="307.829,227.171 307.538,226.908 305,230 307.829,227.171 " />
  <polygon
     style="fill:#ffffff"
     id="polygon64"
     points="307.829,227.171 305,230 305,230 307.829,227.171 " />
  <polygon
     style="fill:#ffffff"
     id="polygon66"
     points="308.092,227.462 307.829,227.171 305,230 308.092,227.462 " />
  <polygon
     style="fill:#ffffff"
     id="polygon68"
     points="308.092,227.462 305,230 305,230 308.092,227.462 " />
  <polygon
     style="fill:#ffffff"
     id="polygon70"
     points="308.326,227.778 308.092,227.462 305,230 308.326,227.778 " />
  <polygon
     style="fill:#ffffff"
     id="polygon72"
     points="308.326,227.778 305,230 305,230 308.326,227.778 " />
  <polygon
     style="fill:#ffffff"
     id="polygon74"
     points="308.528,228.114 308.326,227.778 305,230 308.528,228.114 " />
  <polygon
     style="fill:#ffffff"
     id="polygon76"
     points="308.528,228.114 305,230 305,230 308.528,228.114 " />
  <polygon
     style="fill:#ffffff"
     id="polygon78"
     points="308.695,228.469 308.528,228.114 305,230 308.695,228.469 " />
  <polygon
     style="fill:#ffffff"
     id="polygon80"
     points="308.695,228.469 305,230 305,230 308.695,228.469 " />
  <polygon
     style="fill:#ffffff"
     id="polygon82"
     points="308.828,228.839 308.695,228.469 305,230 308.828,228.839 " />
  <polygon
     style="fill:#ffffff"
     id="polygon84"
     points="308.828,228.839 305,230 305,230 308.828,228.839 " />
  <polygon
     style="fill:#ffffff"
     id="polygon86"
     points="308.923,229.22 308.828,228.839 305,230 308.923,229.22 " />
  <polygon
     style="fill:#ffffff"
     id="polygon88"
     points="308.923,229.22 305,230 305,230 308.923,229.22 " />
  <polygon
     style="fill:#ffffff"
     id="polygon90"
     points="308.981,229.608 308.923,229.22 305,230 308.981,229.608 " />
  <polygon
     style="fill:#ffffff"
     id="polygon92"
     points="308.981,229.608 305,230 305,230 308.981,229.608 " />
  <polygon
     style="fill:#ffffff"
     id="polygon94"
     points="309,230 308.981,229.608 305,230 309,230 " />
  <polygon
     style="fill:#ffffff"
     id="polygon96"
     points="309,230 305,230 305,230 309,230 " />
  <polygon
     style="fill:#ffffff"
     id="polygon98"
     points="308.981,230.392 309,230 305,230 308.981,230.392 " />
  <polygon
     style="fill:#ffffff"
     id="polygon100"
     points="308.981,230.392 305,230 305,230 308.981,230.392 " />
  <polygon
     style="fill:#ffffff"
     id="polygon102"
     points="308.923,230.78 308.981,230.392 305,230 308.923,230.78 " />
  <polygon
     style="fill:#ffffff"
     id="polygon104"
     points="308.923,230.78 305,230 305,230 308.923,230.78 " />
  <polygon
     style="fill:#ffffff"
     id="polygon106"
     points="308.828,231.161 308.923,230.78 305,230 308.828,231.161 " />
  <polygon
     style="fill:#ffffff"
     id="polygon108"
     points="308.828,231.161 305,230 305,230 308.828,231.161 " />
  <polygon
     style="fill:#ffffff"
     id="polygon110"
     points="308.695,231.531 308.828,231.161 305,230 308.695,231.531 " />
  <polygon
     style="fill:#ffffff"
     id="polygon112"
     points="308.695,231.531 305,230 305,230 308.695,231.531 " />
  <polygon
     style="fill:#ffffff"
     id="polygon114"
     points="308.528,231.886 308.695,231.531 305,230 308.528,231.886 " />
  <polygon
     style="fill:#ffffff"
     id="polygon116"
     points="308.528,231.886 305,230 305,230 308.528,231.886 " />
  <polygon
     style="fill:#ffffff"
     id="polygon118"
     points="308.326,232.222 308.528,231.886 305,230 308.326,232.222 " />
  <polygon
     style="fill:#ffffff"
     id="polygon120"
     points="308.326,232.222 305,230 305,230 308.326,232.222 " />
  <polygon
     style="fill:#ffffff"
     id="polygon122"
     points="308.092,232.538 308.326,232.222 305,230 308.092,232.538 " />
  <polygon
     style="fill:#ffffff"
     id="polygon124"
     points="308.092,232.538 305,230 305,230 308.092,232.538 " />
  <polygon
     style="fill:#ffffff"
     id="polygon126"
     points="307.829,232.829 308.092,232.538 305,230 307.829,232.829 " />
  <polygon
     style="fill:#ffffff"
     id="polygon128"
     points="307.829,232.829 305,230 305,230 307.829,232.829 " />
  <polygon
     style="fill:#ffffff"
     id="polygon130"
     points="307.538,233.092 307.829,232.829 305,230 307.538,233.092 " />
  <polygon
     style="fill:#ffffff"
     id="polygon132"
     points="307.538,233.092 305,230 305,230 307.538,233.092 " />
  <polygon
     style="fill:#ffffff"
     id="polygon134"
     points="307.222,233.326 307.538,233.092 305,230 307.222,233.326 " />
  <polygon
     style="fill:#ffffff"
     id="polygon136"
     points="307.222,233.326 305,230 305,230 307.222,233.326 " />
  <polygon
     style="fill:#ffffff"
     id="polygon138"
     points="306.886,233.528 307.222,233.326 305,230 306.886,233.528 " />
  <polygon
     style="fill:#ffffff"
     id="polygon140"
     points="306.886,233.528 305,230 305,230 306.886,233.528 " />
  <polygon
     style="fill:#ffffff"
     id="polygon142"
     points="306.531,233.695 306.886,233.528 305,230 306.531,233.695 " />
  <polygon
     style="fill:#ffffff"
     id="polygon144"
     points="306.531,233.695 305,230 305,230 306.531,233.695 " />
  <polygon
     style="fill:#ffffff"
     id="polygon146"
     points="306.161,233.828 306.531,233.695 305,230 306.161,233.828 " />
  <polygon
     style="fill:#ffffff"
     id="polygon148"
     points="306.161,233.828 305,230 305,230 306.161,233.828 " />
  <polygon
     style="fill:#ffffff"
     id="polygon150"
     points="305.78,233.923 306.161,233.828 305,230 305.78,233.923 " />
  <polygon
     style="fill:#ffffff"
     id="polygon152"
     points="305.78,233.923 305,230 305,230 305.78,233.923 " />
  <polygon
     style="fill:#ffffff"
     id="polygon154"
     points="305.392,233.981 305.78,233.923 305,230 305.392,233.981 " />
  <polygon
     style="fill:#ffffff"
     id="polygon156"
     points="305.392,233.981 305,230 305,230 305.392,233.981 " />
  <polygon
     style="fill:#ffffff"
     id="polygon158"
     points="305,234 305.392,233.981 305,230 305,234 " />
  <polygon
     style="fill:#ffffff"
     id="polygon160"
     points="305,234 305,230 305,230 305,234 " />
  <polygon
     style="fill:#ffffff"
     id="polygon162"
     points="304.608,233.981 305,234 305,230 304.608,233.981 " />
  <polygon
     style="fill:#ffffff"
     id="polygon164"
     points="304.608,233.981 305,230 305,230 304.608,233.981 " />
  <polygon
     style="fill:#ffffff"
     id="polygon166"
     points="304.22,233.923 304.608,233.981 305,230 304.22,233.923 " />
  <polygon
     style="fill:#ffffff"
     id="polygon168"
     points="304.22,233.923 305,230 305,230 304.22,233.923 " />
  <polygon
     style="fill:#ffffff"
     id="polygon170"
     points="303.839,233.828 304.22,233.923 305,230 303.839,233.828 " />
  <polygon
     style="fill:#ffffff"
     id="polygon172"
     points="303.839,233.828 305,230 305,230 303.839,233.828 " />
  <polygon
     style="fill:#ffffff"
     id="polygon174"
     points="303.469,233.695 303.839,233.828 305,230 303.469,233.695 " />
  <polygon
     style="fill:#ffffff"
     id="polygon176"
     points="303.469,233.695 305,230 305,230 303.469,233.695 " />
  <polygon
     style="fill:#ffffff"
     id="polygon178"
     points="303.114,233.528 303.469,233.695 305,230 303.114,233.528 " />
  <polygon
     style="fill:#ffffff"
     id="polygon180"
     points="303.114,233.528 305,230 305,230 303.114,233.528 " />
  <polygon
     style="fill:#ffffff"
     id="polygon182"
     points="302.778,233.326 303.114,233.528 305,230 302.778,233.326 " />
  <polygon
     style="fill:#ffffff"
     id="polygon184"
     points="302.778,233.326 305,230 305,230 302.778,233.326 " />
  <polygon
     style="fill:#ffffff"
     id="polygon186"
     points="302.462,233.092 302.778,233.326 305,230 302.462,233.092 " />
  <polygon
     style="fill:#ffffff"
     id="polygon188"
     points="302.462,233.092 305,230 305,230 302.462,233.092 " />
  <polygon
     style="fill:#ffffff"
     id="polygon190"
     points="302.171,232.829 302.462,233.092 305,230 302.171,232.829 " />
  <polygon
     style="fill:#ffffff"
     id="polygon192"
     points="302.171,232.829 305,230 305,230 302.171,232.829 " />
  <polygon
     style="fill:#ffffff"
     id="polygon194"
     points="301.908,232.538 302.171,232.829 305,230 301.908,232.538 " />
  <polygon
     style="fill:#ffffff"
     id="polygon196"
     points="301.908,232.538 305,230 305,230 301.908,232.538 " />
  <polygon
     style="fill:#ffffff"
     id="polygon198"
     points="301.674,232.222 301.908,232.538 305,230 301.674,232.222 " />
  <polygon
     style="fill:#ffffff"
     id="polygon200"
     points="301.674,232.222 305,230 305,230 301.674,232.222 " />
  <polygon
     style="fill:#ffffff"
     id="polygon202"
     points="301.472,231.886 301.674,232.222 305,230 301.472,231.886 " />
  <polygon
     style="fill:#ffffff"
     id="polygon204"
     points="301.472,231.886 305,230 305,230 301.472,231.886 " />
  <polygon
     style="fill:#ffffff"
     id="polygon206"
     points="301.305,231.531 301.472,231.886 305,230 301.305,231.531 " />
  <polygon
     style="fill:#ffffff"
     id="polygon208"
     points="301.305,231.531 305,230 305,230 301.305,231.531 " />
  <polygon
     style="fill:#ffffff"
     id="polygon210"
     points="301.172,231.161 301.305,231.531 305,230 301.172,231.161 " />
  <polygon
     style="fill:#ffffff"
     id="polygon212"
     points="301.172,231.161 305,230 305,230 301.172,231.161 " />
  <polygon
     style="fill:#ffffff"
     id="polygon214"
     points="301.077,230.78 301.172,231.161 305,230 301.077,230.78 " />
  <polygon
     style="fill:#ffffff"
     id="polygon216"
     points="301.077,230.78 305,230 305,230 301.077,230.78 " />
  <polygon
     style="fill:#ffffff"
     id="polygon218"
     points="301.019,230.392 301.077,230.78 305,230 301.019,230.392 " />
  <polygon
     style="fill:#ffffff"
     id="polygon220"
     points="301.019,230.392 305,230 305,230 301.019,230.392 " />
  <polygon
     style="fill:#ffffff"
     id="polygon222"
     points="301,230 301.019,230.392 305,230 301,230 " />
  <polygon
     style="fill:#ffffff"
     id="polygon224"
     points="301,230 305,230 305,230 301,230 " />
  <polygon
     style="fill:#ffffff"
     id="polygon226"
     points="301.019,229.608 301,230 305,230 301.019,229.608 " />
  <polygon
     style="fill:#ffffff"
     id="polygon228"
     points="301.019,229.608 305,230 305,230 301.019,229.608 " />
  <polygon
     style="fill:#ffffff"
     id="polygon230"
     points="301.077,229.22 301.019,229.608 305,230 301.077,229.22 " />
  <polygon
     style="fill:#ffffff"
     id="polygon232"
     points="301.077,229.22 305,230 305,230 301.077,229.22 " />
  <polygon
     style="fill:#ffffff"
     id="polygon234"
     points="301.172,228.839 301.077,229.22 305,230 301.172,228.839 " />
  <polygon
     style="fill:#ffffff"
     id="polygon236"
     points="301.172,228.839 305,230 305,230 301.172,228.839 " />
  <polygon
     style="fill:#ffffff"
     id="polygon238"
     points="301.305,228.469 301.172,228.839 305,230 301.305,228.469 " />
  <polygon
     style="fill:#ffffff"
     id="polygon240"
     points="301.305,228.469 305,230 305,230 301.305,228.469 " />
  <polygon
     style="fill:#ffffff"
     id="polygon242"
     points="301.472,228.114 301.305,228.469 305,230 301.472,228.114 " />
  <polygon
     style="fill:#ffffff"
     id="polygon244"
     points="301.472,228.114 305,230 305,230 301.472,228.114 " />
  <polygon
     style="fill:#ffffff"
     id="polygon246"
     points="301.674,227.778 301.472,228.114 305,230 301.674,227.778 " />
  <polygon
     style="fill:#ffffff"
     id="polygon248"
     points="301.674,227.778 305,230 305,230 301.674,227.778 " />
  <polygon
     style="fill:#ffffff"
     id="polygon250"
     points="301.908,227.462 301.674,227.778 305,230 301.908,227.462 " />
  <polygon
     style="fill:#ffffff"
     id="polygon252"
     points="301.908,227.462 305,230 305,230 301.908,227.462 " />
  <polygon
     style="fill:#ffffff"
     id="polygon254"
     points="302.171,227.171 301.908,227.462 305,230 302.171,227.171 " />
  <polygon
     style="fill:#ffffff"
     id="polygon256"
     points="302.171,227.171 305,230 305,230 302.171,227.171 " />
  <polygon
     style="fill:#ffffff"
     id="polygon258"
     points="302.462,226.908 302.171,227.171 305,230 302.462,226.908 " />
  <polygon
     style="fill:#ffffff"
     id="polygon260"
     points="302.462,226.908 305,230 305,230 302.462,226.908 " />
  <polygon
     style="fill:#ffffff"
     id="polygon262"
     points="302.778,226.674 302.462,226.908 305,230 302.778,226.674 " />
  <polygon
     style="fill:#ffffff"
     id="polygon264"
     points="302.778,226.674 305,230 305,230 302.778,226.674 " />
  <polygon
     style="fill:#ffffff"
     id="polygon266"
     points="303.114,226.472 302.778,226.674 305,230 303.114,226.472 " />
  <polygon
     style="fill:#ffffff"
     id="polygon268"
     points="303.114,226.472 305,230 305,230 303.114,226.472 " />
  <polygon
     style="fill:#ffffff"
     id="polygon270"
     points="303.469,226.305 303.114,226.472 305,230 303.469,226.305 " />
  <polygon
     style="fill:#ffffff"
     id="polygon272"
     points="303.469,226.305 305,230 305,230 303.469,226.305 " />
  <polygon
     style="fill:#ffffff"
     id="polygon274"
     points="303.839,226.172 303.469,226.305 305,230 303.839,226.172 " />
  <polygon
     style="fill:#ffffff"
     id="polygon276"
     points="303.839,226.172 305,230 305,230 303.839,226.172 " />
  <polygon
     style="fill:#ffffff"
     id="polygon278"
     points="304.22,226.077 303.839,226.172 305,230 304.22,226.077 " />
  <polygon
     style="fill:#ffffff"
     id="polygon280"
     points="304.22,226.077 305,230 305,230 304.22,226.077 " />
  <polygon
     style="fill:#ffffff"
     id="polygon282"
     points="304.608,226.019 304.22,226.077 305,230 304.608,226.019 " />
  <polygon
     style="fill:#ffffff"
     id="polygon284"
     points="304.608,226.019 305,230 305,230 304.608,226.019 " />
  <polygon
     style="fill:#ffffff"
     id="polygon286"
     points="305,226 304.608,226.019 305,230 305,226 " />
  <polygon
     style="fill:#ffffff"
     id="polygon288"
     points="305,226 305,230 305,230 305,226 " />
  <polyline
     style="fill:none;stroke:#0000ff;stroke-width:0.5"
     id="polyline290"
     points="309,230 308.981,229.608 308.923,229.22 308.828,228.839 308.695,228.469 308.528,228.114 308.326,227.778 308.092,227.462 307.829,227.171 307.538,226.908 307.222,226.674 306.886,226.472 306.531,226.305 306.161,226.172 305.78,226.077 305.392,226.019 305,226 304.608,226.019 304.22,226.077 303.839,226.172 303.469,226.305 303.114,226.472 302.778,226.674 302.462,226.908 302.171,227.171 301.908,227.462 301.674,227.778 301.472,228.114 301.305,228.469 301.172,228.839 301.077,229.22 301.019,229.608 301,230 301.019,230.392 301.077,230.78 301.172,231.161 301.305,231.531 301.472,231.886 301.674,232.222 301.908,232.538 302.171,232.829 302.462,233.092 302.778,233.326 303.114,233.528 303.469,233.695 303.839,233.828 304.22,233.923 304.608,233.981 305,234 305.392,233.981 305.78,233.923 306.161,233.828 306.531,233.695 306.886,233.528 307.222,233.326 307.538,233.092 307.829,232.829 308.092,232.538 308.326,232.222 308.528,231.886 308.695,231.531 308.828,231.161 308.923,230.78 308.981,230.392 309,230" />
  <polygon
     style="fill:#ffffff"
     id="polygon292"
     points="305.392,226.019 305,226 305,230 305.392,226.019 " />
  <polygon
     style="fill:#ffffff"
     id="polygon294"
     points="305.392,226.019 305,230 305,230 305.392,226.019 " />
  <polygon
     style="fill:#ffffff"
     id="polygon296"
     points="305.78,226.077 305.392,226.019 305,230 305.78,226.077 " />
  <polygon
     style="fill:#ffffff"
     id="polygon298"
     points="305.78,226.077 305,230 305,230 305.78,226.077 " />
  <polygon
     style="fill:#ffffff"
     id="polygon300"
     points="306.161,226.172 305.78,226.077 305,230 306.161,226.172 " />
  <polygon
     style="fill:#ffffff"
     id="polygon302"
     points="306.161,226.172 305,230 305,230 306.161,226.172 " />
  <polygon
     style="fill:#ffffff"
     id="polygon304"
     points="306.531,226.305 306.161,226.172 305,230 306.531,226.305 " />
  <polygon
     style="fill:#ffffff"
     id="polygon306"
     points="306.531,226.305 305,230 305,230 306.531,226.305 " />
  <polygon
     style="fill:#ffffff"
     id="polygon308"
     points="306.886,226.472 306.531,226.305 305,230 306.886,226.472 " />
  <polygon
     style="fill:#ffffff"
     id="polygon310"
     points="306.886,226.472 305,230 305,230 306.886,226.472 " />
  <polygon
     style="fill:#ffffff"
     id="polygon312"
     points="307.222,226.674 306.886,226.472 305,230 307.222,226.674 " />
  <polygon
     style="fill:#ffffff"
     id="polygon314"
     points="307.222,226.674 305,230 305,230 307.222,226.674 " />
  <polygon
     style="fill:#ffffff"
     id="polygon316"
     points="307.538,226.908 307.222,226.674 305,230 307.538,226.908 " />
  <polygon
     style="fill:#ffffff"
     id="polygon318"
     points="307.538,226.908 305,230 305,230 307.538,226.908 " />
  <polygon
     style="fill:#ffffff"
     id="polygon320"
     points="307.829,227.171 307.538,226.908 305,230 307.829,227.171 " />
  <polygon
     style="fill:#ffffff"
     id="polygon322"
     points="307.829,227.171 305,230 305,230 307.829,227.171 " />
  <polygon
     style="fill:#ffffff"
     id="polygon324"
     points="308.092,227.462 307.829,227.171 305,230 308.092,227.462 " />
  <polygon
     style="fill:#ffffff"
     id="polygon326"
     points="308.092,227.462 305,230 305,230 308.092,227.462 " />
  <polygon
     style="fill:#ffffff"
     id="polygon328"
     points="308.326,227.778 308.092,227.462 305,230 308.326,227.778 " />
  <polygon
     style="fill:#ffffff"
     id="polygon330"
     points="308.326,227.778 305,230 305,230 308.326,227.778 " />
  <polygon
     style="fill:#ffffff"
     id="polygon332"
     points="308.528,228.114 308.326,227.778 305,230 308.528,228.114 " />
  <polygon
     style="fill:#ffffff"
     id="polygon334"
     points="308.528,228.114 305,230 305,230 308.528,228.114 " />
  <polygon
     style="fill:#ffffff"
     id="polygon336"
     points="308.695,228.469 308.528,228.114 305,230 308.695,228.469 " />
  <polygon
     style="fill:#ffffff"
     id="polygon338"
     points="308.695,228.469 305,230 305,230 308.695,228.469 " />
  <polygon
     style="fill:#ffffff"
     id="polygon340"
     points="308.828,228.839 308.695,228.469 305,230 308.828,228.839 " />
  <polygon
     style="fill:#ffffff"
     id="polygon342"
     points="308.828,228.839 305,230 305,230 308.828,228.839 " />
  <polygon
     style="fill:#ffffff"
     id="polygon344"
     points="308.923,229.22 308.828,228.839 305,230 308.923,229.22 " />
  <polygon
     style="fill:#ffffff"
     id="polygon346"
     points="308.923,229.22 305,230 305,230 308.923,229.22 " />
  <polygon
     style="fill:#ffffff"
     id="polygon348"
     points="308.981,229.608 308.923,229.22 305,230 308.981,229.608 " />
  <polygon
     style="fill:#ffffff"
     id="polygon350"
     points="308.981,229.608 305,230 305,230 308.981,229.608 " />
  <polygon
     style="fill:#ffffff"
     id="polygon352"
     points="309,230 308.981,229.608 305,230 309,230 " />
  <polygon
     style="fill:#ffffff"
     id="polygon354"
     points="309,230 305,230 305,230 309,230 " />
  <polygon
     style="fill:#ffffff"
     id="polygon356"
     points="308.981,230.392 309,230 305,230 308.981,230.392 " />
  <polygon
     style="fill:#ffffff"
     id="polygon358"
     points="308.981,230.392 305,230 305,230 308.981,230.392 " />
  <polygon
     style="fill:#ffffff"
     id="polygon360"
     points="308.923,230.78 308.981,230.392 305,230 308.923,230.78 " />
  <polygon
     style="fill:#ffffff"
     id="polygon362"
     points="308.923,230.78 305,230 305,230 308.923,230.78 " />
  <polygon
     style="fill:#ffffff"
     id="polygon364"
     points="308.828,231.161 308.923,230.78 305,230 308.828,231.161 " />
  <polygon
     style="fill:#ffffff"
     id="polygon366"
     points="308.828,231.161 305,230 305,230 308.828,231.161 " />
  <polygon
     style="fill:#ffffff"
     id="polygon368"
     points="308.695,231.531 308.828,231.161 305,230 308.695,231.531 " />
  <polygon
     style="fill:#ffffff"
     id="polygon370"
     points="308.695,231.531 305,230 305,230 308.695,231.531 " />
  <polygon
     style="fill:#ffffff"
     id="polygon372"
     points="308.528,231.886 308.695,231.531 305,230 308.528,231.886 " />
  <polygon
     style="fill:#ffffff"
     id="polygon374"
     points="308.528,231.886 305,230 305,230 308.528,231.886 " />
  <polygon
     style="fill:#ffffff"
     id="polygon376"
     points="308.326,232.222 308.528,231.886 305,230 308.326,232.222 " />
  <polygon
     style="fill:#ffffff"
     id="polygon378"
     points="308.326,232.222 305,230 305,230 308.326,232.222 " />
  <polygon
     style="fill:#ffffff"
     id="polygon380"
     points="308.092,232.538 308.326,232.222 305,230 308.092,232.538 " />
  <polygon
     style="fill:#ffffff"
     id="polygon382"
     points="308.092,232.538 305,230 305,230 308.092,232.538 " />
  <polygon
     style="fill:#ffffff"
     id="polygon384"
     points="307.829,232.829 308.092,232.538 305,230 307.829,232.829 " />
  <polygon
     style="fill:#ffffff"
     id="polygon386"
     points="307.829,232.829 305,230 305,230 307.829,232.829 " />
  <polygon
     style="fill:#ffffff"
     id="polygon388"
     points="307.538,233.092 307.829,232.829 305,230 307.538,233.092 " />
  <polygon
     style="fill:#ffffff"
     id="polygon390"
     points="307.538,233.092 305,230 305,230 307.538,233.092 " />
  <polygon
     style="fill:#ffffff"
     id="polygon392"
     points="307.222,233.326 307.538,233.092 305,230 307.222,233.326 " />
  <polygon
     style="fill:#ffffff"
     id="polygon394"
     points="307.222,233.326 305,230 305,230 307.222,233.326 " />
  <polygon
     style="fill:#ffffff"
     id="polygon396"
     points="306.886,233.528 307.222,233.326 305,230 306.886,233.528 " />
  <polygon
     style="fill:#ffffff"
     id="polygon398"
     points="306.886,233.528 305,230 305,230 306.886,233.528 " />
  <polygon
     style="fill:#ffffff"
     id="polygon400"
     points="306.531,233.695 306.886,233.528 305,230 306.531,233.695 " />
  <polygon
     style="fill:#ffffff"
     id="polygon402"
     points="306.531,233.695 305,230 305,230 306.531,233.695 " />
  <polygon
     style="fill:#ffffff"
     id="polygon404"
     points="306.161,233.828 306.531,233.695 305,230 306.161,233.828 " />
  <polygon
     style="fill:#ffffff"
     id="polygon406"
     points="306.161,233.828 305,230 305,230 306.161,233.828 " />
  <polygon
     style="fill:#ffffff"
     id="polygon408"
     points="305.78,233.923 306.161,233.828 305,230 305.78,233.923 " />
  <polygon
     style="fill:#ffffff"
     id="polygon410"
     points="305.78,233.923 305,230 305,230 305.78,233.923 " />
  <polygon
     style="fill:#ffffff"
     id="polygon412"
     points="305.392,233.981 305.78,233.923 305,230 305.392,233.981 " />
  <polygon
     style="fill:#ffffff"
     id="polygon414"
     points="305.392,233.981 305,230 305,230 305.392,233.981 " />
  <polygon
     style="fill:#ffffff"
     id="polygon416"
     points="305,234 305.392,233.981 305,230 305,234 " />
  <polygon
     style="fill:#ffffff"
     id="polygon418"
     points="305,234 305,230 305,230 305,234 " />
  <polygon
     style="fill:#ffffff"
     id="polygon420"
     points="304.608,233.981 305,234 305,230 304.608,233.981 " />
  <polygon
     style="fill:#ffffff"
     id="polygon422"
     points="304.608,233.981 305,230 305,230 304.608,233.981 " />
  <polygon
     style="fill:#ffffff"
     id="polygon424"
     points="304.22,233.923 304.608,233.981 305,230 304.22,233.923 " />
  <polygon
     style="fill:#ffffff"
     id="polygon426"
     points="304.22,233.923 305,230 305,230 304.22,233.923 " />
  <polygon
     style="fill:#ffffff"
     id="polygon428"
     points="303.839,233.828 304.22,233.923 305,230 303.839,233.828 " />
  <polygon
     style="fill:#ffffff"
     id="polygon430"
     points="303.839,233.828 305,230 305,230 303.839,233.828 " />
  <polygon
     style="fill:#ffffff"
     id="polygon432"
     points="303.469,233.695 303.839,233.828 305,230 303.469,233.695 " />
  <polygon
     style="fill:#ffffff"
     id="polygon434"
     points="303.469,233.695 305,230 305,230 303.469,233.695 " />
  <polygon
     style="fill:#ffffff"
     id="polygon436"
     points="303.114,233.528 303.469,233.695 305,230 303.114,233.528 " />
  <polygon
     style="fill:#ffffff"
     id="polygon438"
     points="303.114,233.528 305,230 305,230 303.114,233.528 " />
  <polygon
     style="fill:#ffffff"
     id="polygon440"
     points="302.778,233.326 303.114,233.528 305,230 302.778,233.326 " />
  <polygon
     style="fill:#ffffff"
     id="polygon442"
     points="302.778,233.326 305,230 305,230 302.778,233.326 " />
  <polygon
     style="fill:#ffffff"
     id="polygon444"
     points="302.462,233.092 302.778,233.326 305,230 302.462,233.092 " />
  <polygon
     style="fill:#ffffff"
     id="polygon446"
     points="302.462,233.092 305,230 305,230 302.462,233.092 " />
  <polygon
     style="fill:#ffffff"
     id="polygon448"
     points="302.171,232.829 302.462,233.092 305,230 302.171,232.829 " />
  <polygon
     style="fill:#ffffff"
     id="polygon450"
     points="302.171,232.829 305,230 305,230 302.171,232.829 " />
  <polygon
     style="fill:#ffffff"
     id="polygon452"
     points="301.908,232.538 302.171,232.829 305,230 301.908,232.538 " />
  <polygon
     style="fill:#ffffff"
     id="polygon454"
     points="301.908,232.538 305,230 305,230 301.908,232.538 " />
  <polygon
     style="fill:#ffffff"
     id="polygon456"
     points="301.674,232.222 301.908,232.538 305,230 301.674,232.222 " />
  <polygon
     style="fill:#ffffff"
     id="polygon458"
     points="301.674,232.222 305,230 305,230 301.674,232.222 " />
  <polygon
     style="fill:#ffffff"
     id="polygon460"
     points="301.472,231.886 301.674,232.222 305,230 301.472,231.886 " />
  <polygon
     style="fill:#ffffff"
     id="polygon462"
     points="301.472,231.886 305,230 305,230 301.472,231.886 " />
  <polygon
     style="fill:#ffffff"
     id="polygon464"
     points="301.305,231.531 301.472,231.886 305,230 301.305,231.531 " />
  <polygon
     style="fill:#ffffff"
     id="polygon466"
     points="301.305,231.531 305,230 305,230 301.305,231.531 " />
  <polygon
     style="fill:#ffffff"
     id="polygon468"
     points="301.172,231.161 301.305,231.531 305,230 301.172,231.161 " />
  <polygon
     style="fill:#ffffff"
     id="polygon470"
     points="301.172,231.161 305,230 305,230 301.172,231.161 " />
  <polygon
     style="fill:#ffffff"
     id="polygon472"
     points="301.077,230.78 301.172,231.161 305,230 301.077,230.78 " />
  <polygon
     style="fill:#ffffff"
     id="polygon474"
     points="301.077,230.78 305,230 305,230 301.077,230.78 " />
  <polygon
     style="fill:#ffffff"
     id="polygon476"
     points="301.019,230.392 301.077,230.78 305,230 301.019,230.392 " />
  <polygon
     style="fill:#ffffff"
     id="polygon478"
     points="301.019,230.392 305,230 305,230 301.019,230.392 " />
  <polygon
     style="fill:#ffffff"
     id="polygon480"
     points="301,230 301.019,230.392 305,230 301,230 " />
  <polygon
     style="fill:#ffffff"
     id="polygon482"
     points="301,230 305,230 305,230 301,230 " />
  <polygon
     style="fill:#ffffff"
     id="polygon484"
     points="301.019,229.608 301,230 305,230 301.019,229.608 " />
  <polygon
     style="fill:#ffffff"
     id="polygon486"
     points="301.019,229.608 305,230 305,230 301.019,229.608 " />
  <polygon
     style="fill:#ffffff"
     id="polygon488"
     points="301.077,229.22 301.019,229.608 305,230 301.077,229.22 " />
  <polygon
     style="fill:#ffffff"
     id="polygon490"
     points="301.077,229.22 305,230 305,230 301.077,229.22 " />
  <polygon
     style="fill:#ffffff"
     id="polygon492"
     points="301.172,228.839 301.077,229.22 305,230 301.172,228.839 " />
  <polygon
     style="fill:#ffffff"
     id="polygon494"
     points="301.172,228.839 305,230 305,230 301.172,228.839 " />
  <polygon
     style="fill:#ffffff"
     id="polygon496"
     points="301.305,228.469 301.172,228.839 305,230 301.305,228.469 " />
  <polygon
     style="fill:#ffffff"
     id="polygon498"
     points="301.305,228.469 305,230 305,230 301.305,228.469 " />
  <polygon
     style="fill:#ffffff"
     id="polygon500"
     points="301.472,228.114 301.305,228.469 305,230 301.472,228.114 " />
  <polygon
     style="fill:#ffffff"
     id="polygon502"
     points="301.472,228.114 305,230 305,230 301.472,228.114 " />
  <polygon
     style="fill:#ffffff"
     id="polygon504"
     points="301.674,227.778 301.472,228.114 305,230 301.674,227.778 " />
  <polygon
     style="fill:#ffffff"
     id="polygon506"
     points="301.674,227.778 305,230 305,230 301.674,227.778 " />
  <polygon
     style="fill:#ffffff"
     id="polygon508"
     points="301.908,227.462 301.674,227.778 305,230 301.908,227.462 " />
  <polygon
     style="fill:#ffffff"
     id="polygon510"
     points="301.908,227.462 305,230 305,230 301.908,227.462 " />
  <polygon
     style="fill:#ffffff"
     id="polygon512"
     points="302.171,227.171 301.908,227.462 305,230 302.171,227.171 " />
  <polygon
     style="fill:#ffffff"
     id="polygon514"
     points="302.171,227.171 305,230 305,230 302.171,227.171 " />
  <polygon
     style="fill:#ffffff"
     id="polygon516"
     points="302.462,226.908 302.171,227.171 305,230 302.462,226.908 " />
  <polygon
     style="fill:#ffffff"
     id="polygon518"
     points="302.462,226.908 305,230 305,230 302.462,226.908 " />
  <polygon
     style="fill:#ffffff"
     id="polygon520"
     points="302.778,226.674 302.462,226.908 305,230 302.778,226.674 " />
  <polygon
     style="fill:#ffffff"
     id="polygon522"
     points="302.778,226.674 305,230 305,230 302.778,226.674 " />
  <polygon
     style="fill:#ffffff"
     id="polygon524"
     points="303.114,226.472 302.778,226.674 305,230 303.114,226.472 " />
  <polygon
     style="fill:#ffffff"
     id="polygon526"
     points="303.114,226.472 305,230 305,230 303.114,226.472 " />
  <polygon
     style="fill:#ffffff"
     id="polygon528"
     points="303.469,226.305 303.114,226.472 305,230 303.469,226.305 " />
  <polygon
     style="fill:#ffffff"
     id="polygon530"
     points="303.469,226.305 305,230 305,230 303.469,226.305 " />
  <polygon
     style="fill:#ffffff"
     id="polygon532"
     points="303.839,226.172 303.469,226.305 305,230 303.839,226.172 " />
  <polygon
     style="fill:#ffffff"
     id="polygon534"
     points="303.839,226.172 305,230 305,230 303.839,226.172 " />
  <polygon
     style="fill:#ffffff"
     id="polygon536"
     points="304.22,226.077 303.839,226.172 305,230 304.22,226.077 " />
  <polygon
     style="fill:#ffffff"
     id="polygon538"
     points="304.22,226.077 305,230 305,230 304.22,226.077 " />
  <polygon
     style="fill:#ffffff"
     id="polygon540"
     points="304.608,226.019 304.22,226.077 305,230 304.608,226.019 " />
  <polygon
     style="fill:#ffffff"
     id="polygon542"
     points="304.608,226.019 305,230 305,230 304.608,226.019 " />
  <polygon
     style="fill:#ffffff"
     id="polygon544"
     points="305,226 304.608,226.019 305,230 305,226 " />
  <polygon
     style="fill:#ffffff"
     id="polygon546"
     points="305,226 305,230 305,230 305,226 " />
  <polyline
     style="fill:none;stroke:#0000ff;stroke-width:0.5"
     id="polyline548"
     points="309,230 308.981,229.608 308.923,229.22 308.828,228.839 308.695,228.469 308.528,228.114 308.326,227.778 308.092,227.462 307.829,227.171 307.538,226.908 307.222,226.674 306.886,226.472 306.531,226.305 306.161,226.172 305.78,226.077 305.392,226.019 305,226 304.608,226.019 304.22,226.077 303.839,226.172 303.469,226.305 303.114,226.472 302.778,226.674 302.462,226.908 302.171,227.171 301.908,227.462 301.674,227.778 301.472,228.114 301.305,228.469 301.172,228.839 301.077,229.22 301.019,229.608 301,230 301.019,230.392 301.077,230.78 301.172,231.161 301.305,231.531 301.472,231.886 301.674,232.222 301.908,232.538 302.171,232.829 302.462,233.092 302.778,233.326 303.114,233.528 303.469,233.695 303.839,233.828 304.22,233.923 304.608,233.981 305,234 305.392,233.981 305.78,233.923 306.161,233.828 306.531,233.695 306.886,233.528 307.222,233.326 307.538,233.092 307.829,232.829 308.092,232.538 308.326,232.222 308.528,231.886 308.695,231.531 308.828,231.161 308.923,230.78 308.981,230.392 309,230" />
  <polygon
     style="fill:#ffffff"
     id="polygon550"
     points="305.392,226.019 305,226 305,230 305.392,226.019 " />
  <polygon
     style="fill:#ffffff"
     id="polygon552"
     points="305.392,226.019 305,230 305,230 305.392,226.019 " />
  <polygon
     style="fill:#ffffff"
     id="polygon554"
     points="305.78,226.077 305.392,226.019 305,230 305.78,226.077 " />
  <polygon
     style="fill:#ffffff"
     id="polygon556"
     points="305.78,226.077 305,230 305,230 305.78,226.077 " />
  <polygon
     style="fill:#ffffff"
     id="polygon558"
     points="306.161,226.172 305.78,226.077 305,230 306.161,226.172 " />
  <polygon
     style="fill:#ffffff"
     id="polygon560"
     points="306.161,226.172 305,230 305,230 306.161,226.172 " />
  <polygon
     style="fill:#ffffff"
     id="polygon562"
     points="306.531,226.305 306.161,226.172 305,230 306.531,226.305 " />
  <polygon
     style="fill:#ffffff"
     id="polygon564"
     points="306.531,226.305 305,230 305,230 306.531,226.305 " />
  <polygon
     style="fill:#ffffff"
     id="polygon566"
     points="306.886,226.472 306.531,226.305 305,230 306.886,226.472 " />
  <polygon
     style="fill:#ffffff"
     id="polygon568"
     points="306.886,226.472 305,230 305,230 306.886,226.472 " />
  <polygon
     style="fill:#ffffff"
     id="polygon570"
     points="307.222,226.674 306.886,226.472 305,230 307.222,226.674 " />
  <polygon
     style="fill:#ffffff"
     id="polygon572"
     points="307.222,226.674 305,230 305,230 307.222,226.674 " />
  <polygon
     style="fill:#ffffff"
     id="polygon574"
     points="307.538,226.908 307.222,226.674 305,230 307.538,226.908 " />
  <polygon
     style="fill:#ffffff"
     id="polygon576"
     points="307.538,226.908 305,230 305,230 307.538,226.908 " />
  <polygon
     style="fill:#ffffff"
     id="polygon578"
     points="307.829,227.171 307.538,226.908 305,230 307.829,227.171 " />
  <polygon
     style="fill:#ffffff"
     id="polygon580"
     points="307.829,227.171 305,230 305,230 307.829,227.171 " />
  <polygon
     style="fill:#ffffff"
     id="polygon582"
     points="308.092,227.462 307.829,227.171 305,230 308.092,227.462 " />
  <polygon
     style="fill:#ffffff"
     id="polygon584"
     points="308.092,227.462 305,230 305,230 308.092,227.462 " />
  <polygon
     style="fill:#ffffff"
     id="polygon586"
     points="308.326,227.778 308.092,227.462 305,230 308.326,227.778 " />
  <polygon
     style="fill:#ffffff"
     id="polygon588"
     points="308.326,227.778 305,230 305,230 308.326,227.778 " />
  <polygon
     style="fill:#ffffff"
     id="polygon590"
     points="308.528,228.114 308.326,227.778 305,230 308.528,228.114 " />
  <polygon
     style="fill:#ffffff"
     id="polygon592"
     points="308.528,228.114 305,230 305,230 308.528,228.114 " />
  <polygon
     style="fill:#ffffff"
     id="polygon594"
     points="308.695,228.469 308.528,228.114 305,230 308.695,228.469 " />
  <polygon
     style="fill:#ffffff"
     id="polygon596"
     points="308.695,228.469 305,230 305,230 308.695,228.469 " />
  <polygon
     style="fill:#ffffff"
     id="polygon598"
     points="308.828,228.839 308.695,228.469 305,230 308.828,228.839 " />
  <polygon
     style="fill:#ffffff"
     id="polygon600"
     points="308.828,228.839 305,230 305,230 308.828,228.839 " />
  <polygon
     style="fill:#ffffff"
     id="polygon602"
     points="308.923,229.22 308.828,228.839 305,230 308.923,229.22 " />
  <polygon
     style="fill:#ffffff"
     id="polygon604"
     points="308.923,229.22 305,230 305,230 308.923,229.22 " />
  <polygon
     style="fill:#ffffff"
     id="polygon606"
     points="308.981,229.608 308.923,229.22 305,230 308.981,229.608 " />
  <polygon
     style="fill:#ffffff"
     id="polygon608"
     points="308.981,229.608 305,230 305,230 308.981,229.608 " />
  <polygon
     style="fill:#ffffff"
     id="polygon610"
     points="309,230 308.981,229.608 305,230 309,230 " />
  <polygon
     style="fill:#ffffff"
     id="polygon612"
     points="309,230 305,230 305,230 309,230 " />
  <polygon
     style="fill:#ffffff"
     id="polygon614"
     points="308.981,230.392 309,230 305,230 308.981,230.392 " />
  <polygon
     style="fill:#ffffff"
     id="polygon616"
     points="308.981,230.392 305,230 305,230 308.981,230.392 " />
  <polygon
     style="fill:#ffffff"
     id="polygon618"
     points="308.923,230.78 308.981,230.392 305,230 308.923,230.78 " />
  <polygon
     style="fill:#ffffff"
     id="polygon620"
     points="308.923,230.78 305,230 305,230 308.923,230.78 " />
  <polygon
     style="fill:#ffffff"
     id="polygon622"
     points="308.828,231.161 308.923,230.78 305,230 308.828,231.161 " />
  <polygon
     style="fill:#ffffff"
     id="polygon624"
     points="308.828,231.161 305,230 305,230 308.828,231.161 " />
  <polygon
     style="fill:#ffffff"
     id="polygon626"
     points="308.695,231.531 308.828,231.161 305,230 308.695,231.531 " />
  <polygon
     style="fill:#ffffff"
     id="polygon628"
     points="308.695,231.531 305,230 305,230 308.695,231.531 " />
  <polygon
     style="fill:#ffffff"
     id="polygon630"
     points="308.528,231.886 308.695,231.531 305,230 308.528,231.886 " />
  <polygon
     style="fill:#ffffff"
     id="polygon632"
     points="308.528,231.886 305,230 305,230 308.528,231.886 " />
  <polygon
     style="fill:#ffffff"
     id="polygon634"
     points="308.326,232.222 308.528,231.886 305,230 308.326,232.222 " />
  <polygon
     style="fill:#ffffff"
     id="polygon636"
     points="308.326,232.222 305,230 305,230 308.326,232.222 " />
  <polygon
     style="fill:#ffffff"
     id="polygon638"
     points="308.092,232.538 308.326,232.222 305,230 308.092,232.538 " />
  <polygon
     style="fill:#ffffff"
     id="polygon640"
     points="308.092,232.538 305,230 305,230 308.092,232.538 " />
  <polygon
     style="fill:#ffffff"
     id="polygon642"
     points="307.829,232.829 308.092,232.538 305,230 307.829,232.829 " />
  <polygon
     style="fill:#ffffff"
     id="polygon644"
     points="307.829,232.829 305,230 305,230 307.829,232.829 " />
  <polygon
     style="fill:#ffffff"
     id="polygon646"
     points="307.538,233.092 307.829,232.829 305,230 307.538,233.092 " />
  <polygon
     style="fill:#ffffff"
     id="polygon648"
     points="307.538,233.092 305,230 305,230 307.538,233.092 " />
  <polygon
     style="fill:#ffffff"
     id="polygon650"
     points="307.222,233.326 307.538,233.092 305,230 307.222,233.326 " />
  <polygon
     style="fill:#ffffff"
     id="polygon652"
     points="307.222,233.326 305,230 305,230 307.222,233.326 " />
  <polygon
     style="fill:#ffffff"
     id="polygon654"
     points="306.886,233.528 307.222,233.326 305,230 306.886,233.528 " />
  <polygon
     style="fill:#ffffff"
     id="polygon656"
     points="306.886,233.528 305,230 305,230 306.886,233.528 " />
  <polygon
     style="fill:#ffffff"
     id="polygon658"
     points="306.531,233.695 306.886,233.528 305,230 306.531,233.695 " />
  <polygon
     style="fill:#ffffff"
     id="polygon660"
     points="306.531,233.695 305,230 305,230 306.531,233.695 " />
  <polygon
     style="fill:#ffffff"
     id="polygon662"
     points="306.161,233.828 306.531,233.695 305,230 306.161,233.828 " />
  <polygon
     style="fill:#ffffff"
     id="polygon664"
     points="306.161,233.828 305,230 305,230 306.161,233.828 " />
  <polygon
     style="fill:#ffffff"
     id="polygon666"
     points="305.78,233.923 306.161,233.828 305,230 305.78,233.923 " />
  <polygon
     style="fill:#ffffff"
     id="polygon668"
     points="305.78,233.923 305,230 305,230 305.78,233.923 " />
  <polygon
     style="fill:#ffffff"
     id="polygon670"
     points="305.392,233.981 305.78,233.923 305,230 305.392,233.981 " />
  <polygon
     style="fill:#ffffff"
     id="polygon672"
     points="305.392,233.981 305,230 305,230 305.392,233.981 " />
  <polygon
     style="fill:#ffffff"
     id="polygon674"
     points="305,234 305.392,233.981 305,230 305,234 " />
  <polygon
     style="fill:#ffffff"
     id="polygon676"
     points="305,234 305,230 305,230 305,234 " />
  <polygon
     style="fill:#ffffff"
     id="polygon678"
     points="304.608,233.981 305,234 305,230 304.608,233.981 " />
  <polygon
     style="fill:#ffffff"
     id="polygon680"
     points="304.608,233.981 305,230 305,230 304.608,233.981 " />
  <polygon
     style="fill:#ffffff"
     id="polygon682"
     points="304.22,233.923 304.608,233.981 305,230 304.22,233.923 " />
  <polygon
     style="fill:#ffffff"
     id="polygon684"
     points="304.22,233.923 305,230 305,230 304.22,233.923 " />
  <polygon
     style="fill:#ffffff"
     id="polygon686"
     points="303.839,233.828 304.22,233.923 305,230 303.839,233.828 " />
  <polygon
     style="fill:#ffffff"
     id="polygon688"
     points="303.839,233.828 305,230 305,230 303.839,233.828 " />
  <polygon
     style="fill:#ffffff"
     id="polygon690"
     points="303.469,233.695 303.839,233.828 305,230 303.469,233.695 " />
  <polygon
     style="fill:#ffffff"
     id="polygon692"
     points="303.469,233.695 305,230 305,230 303.469,233.695 " />
  <polygon
     style="fill:#ffffff"
     id="polygon694"
     points="303.114,233.528 303.469,233.695 305,230 303.114,233.528 " />
  <polygon
     style="fill:#ffffff"
     id="polygon696"
     points="303.114,233.528 305,230 305,230 303.114,233.528 " />
  <polygon
     style="fill:#ffffff"
     id="polygon698"
     points="302.778,233.326 303.114,233.528 305,230 302.778,233.326 " />
  <polygon
     style="fill:#ffffff"
     id="polygon700"
     points="302.778,233.326 305,230 305,230 302.778,233.326 " />
  <polygon
     style="fill:#ffffff"
     id="polygon702"
     points="302.462,233.092 302.778,233.326 305,230 302.462,233.092 " />
  <polygon
     style="fill:#ffffff"
     id="polygon704"
     points="302.462,233.092 305,230 305,230 302.462,233.092 " />
  <polygon
     style="fill:#ffffff"
     id="polygon706"
     points="302.171,232.829 302.462,233.092 305,230 302.171,232.829 " />
  <polygon
     style="fill:#ffffff"
     id="polygon708"
     points="302.171,232.829 305,230 305,230 302.171,232.829 " />
  <polygon
     style="fill:#ffffff"
     id="polygon710"
     points="301.908,232.538 302.171,232.829 305,230 301.908,232.538 " />
  <polygon
     style="fill:#ffffff"
     id="polygon712"
     points="301.908,232.538 305,230 305,230 301.908,232.538 " />
  <polygon
     style="fill:#ffffff"
     id="polygon714"
     points="301.674,232.222 301.908,232.538 305,230 301.674,232.222 " />
  <polygon
     style="fill:#ffffff"
     id="polygon716"
     points="301.674,232.222 305,230 305,230 301.674,232.222 " />
  <polygon
     style="fill:#ffffff"
     id="polygon718"
     points="301.472,231.886 301.674,232.222 305,230 301.472,231.886 " />
  <polygon
     style="fill:#ffffff"
     id="polygon720"
     points="301.472,231.886 305,230 305,230 301.472,231.886 " />
  <polygon
     style="fill:#ffffff"
     id="polygon722"
     points="301.305,231.531 301.472,231.886 305,230 301.305,231.531 " />
  <polygon
     style="fill:#ffffff"
     id="polygon724"
     points="301.305,231.531 305,230 305,230 301.305,231.531 " />
  <polygon
     style="fill:#ffffff"
     id="polygon726"
     points="301.172,231.161 301.305,231.531 305,230 301.172,231.161 " />
  <polygon
     style="fill:#ffffff"
     id="polygon728"
     points="301.172,231.161 305,230 305,230 301.172,231.161 " />
  <polygon
     style="fill:#ffffff"
     id="polygon730"
     points="301.077,230.78 301.172,231.161 305,230 301.077,230.78 " />
  <polygon
     style="fill:#ffffff"
     id="polygon732"
     points="301.077,230.78 305,230 305,230 301.077,230.78 " />
  <polygon
     style="fill:#ffffff"
     id="polygon734"
     points="301.019,230.392 301.077,230.78 305,230 301.019,230.392 " />
  <polygon
     style="fill:#ffffff"
     id="polygon736"
     points="301.019,230.392 305,230 305,230 301.019,230.392 " />
  <polygon
     style="fill:#ffffff"
     id="polygon738"
     points="301,230 301.019,230.392 305,230 301,230 " />
  <polygon
     style="fill:#ffffff"
     id="polygon740"
     points="301,230 305,230 305,230 301,230 " />
  <polygon
     style="fill:#ffffff"
     id="polygon742"
     points="301.019,229.608 301,230 305,230 301.019,229.608 " />
  <polygon
     style="fill:#ffffff"
     id="polygon744"
     points="301.019,229.608 305,230 305,230 301.019,229.608 " />
  <polygon
     style="fill:#ffffff"
     id="polygon746"
     points="301.077,229.22 301.019,229.608 305,230 301.077,229.22 " />
  <polygon
     style="fill:#ffffff"
     id="polygon748"
     points="301.077,229.22 305,230 305,230 301.077,229.22 " />
  <polygon
     style="fill:#ffffff"
     id="polygon750"
     points="301.172,228.839 301.077,229.22 305,230 301.172,228.839 " />
  <polygon
     style="fill:#ffffff"
     id="polygon752"
     points="301.172,228.839 305,230 305,230 301.172,228.839 " />
  <polygon
     style="fill:#ffffff"
     id="polygon754"
     points="301.305,228.469 301.172,228.839 305,230 301.305,228.469 " />
  <polygon
     style="fill:#ffffff"
     id="polygon756"
     points="301.305,228.469 305,230 305,230 301.305,228.469 " />
  <polygon
     style="fill:#ffffff"
     id="polygon758"
     points="301.472,228.114 301.305,228.469 305,230 301.472,228.114 " />
  <polygon
     style="fill:#ffffff"
     id="polygon760"
     points="301.472,228.114 305,230 305,230 301.472,228.114 " />
  <polygon
     style="fill:#ffffff"
     id="polygon762"
     points="301.674,227.778 301.472,228.114 305,230 301.674,227.778 " />
  <polygon
     style="fill:#ffffff"
     id="polygon764"
     points="301.674,227.778 305,230 305,230 301.674,227.778 " />
  <polygon
     style="fill:#ffffff"
     id="polygon766"
     points="301.908,227.462 301.674,227.778 305,230 301.908,227.462 " />
  <polygon
     style="fill:#ffffff"
     id="polygon768"
     points="301.908,227.462 305,230 305,230 301.908,227.462 " />
  <polygon
     style="fill:#ffffff"
     id="polygon770"
     points="302.171,227.171 301.908,227.462 305,230 302.171,227.171 " />
  <polygon
     style="fill:#ffffff"
     id="polygon772"
     points="302.171,227.171 305,230 305,230 302.171,227.171 " />
  <polygon
     style="fill:#ffffff"
     id="polygon774"
     points="302.462,226.908 302.171,227.171 305,230 302.462,226.908 " />
  <polygon
     style="fill:#ffffff"
     id="polygon776"
     points="302.462,226.908 305,230 305,230 302.462,226.908 " />
  <polygon
     style="fill:#ffffff"
     id="polygon778"
     points="302.778,226.674 302.462,226.908 305,230 302.778,226.674 " />
  <polygon
     style="fill:#ffffff"
     id="polygon780"
     points="302.778,226.674 305,230 305,230 302.778,226.674 " />
  <polygon
     style="fill:#ffffff"
     id="polygon782"
     points="303.114,226.472 302.778,226.674 305,230 303.114,226.472 " />
  <polygon
     style="fill:#ffffff"
     id="polygon784"
     points="303.114,226.472 305,230 305,230 303.114,226.472 " />
  <polygon
     style="fill:#ffffff"
     id="polygon786"
     points="303.469,226.305 303.114,226.472 305,230 303.469,226.305 " />
  <polygon
     style="fill:#ffffff"
     id="polygon788"
     points="303.469,226.305 305,230 305,230 303.469,226.305 " />
  <polygon
     style="fill:#ffffff"
     id="polygon790"
     points="303.839,226.172 303.469,226.305 305,230 303.839,226.172 " />
  <polygon
     style="fill:#ffffff"
     id="polygon792"
     points="303.839,226.172 305,230 305,230 303.839,226.172 " />
  <polygon
     style="fill:#ffffff"
     id="polygon794"
     points="304.22,226.077 303.839,226.172 305,230 304.22,226.077 " />
  <polygon
     style="fill:#ffffff"
     id="polygon796"
     points="304.22,226.077 305,230 305,230 304.22,226.077 " />
  <polygon
     style="fill:#ffffff"
     id="polygon798"
     points="304.608,226.019 304.22,226.077 305,230 304.608,226.019 " />
  <polygon
     style="fill:#ffffff"
     id="polygon800"
     points="304.608,226.019 305,230 305,230 304.608,226.019 " />
  <polygon
     style="fill:#ffffff"
     id="polygon802"
     points="305,226 304.608,226.019 305,230 305,226 " />
  <polygon
     style="fill:#ffffff"
     id="polygon804"
     points="305,226 305,230 305,230 305,226 " />
  <polyline
     style="fill:none;stroke:#0000ff;stroke-width:4;stroke-miterlimit:4;stroke-dasharray:none"
     id="polyline806"
     points="309,230 308.981,229.608 308.923,229.22 308.828,228.839 308.695,228.469 308.528,228.114 308.326,227.778 308.092,227.462 307.829,227.171 307.538,226.908 307.222,226.674 306.886,226.472 306.531,226.305 306.161,226.172 305.78,226.077 305.392,226.019 305,226 304.608,226.019 304.22,226.077 303.839,226.172 303.469,226.305 303.114,226.472 302.778,226.674 302.462,226.908 302.171,227.171 301.908,227.462 301.674,227.778 301.472,228.114 301.305,228.469 301.172,228.839 301.077,229.22 301.019,229.608 301,230 301.019,230.392 301.077,230.78 301.172,231.161 301.305,231.531 301.472,231.886 301.674,232.222 301.908,232.538 302.171,232.829 302.462,233.092 302.778,233.326 303.114,233.528 303.469,233.695 303.839,233.828 304.22,233.923 304.608,233.981 305,234 305.392,233.981 305.78,233.923 306.161,233.828 306.531,233.695 306.886,233.528 307.222,233.326 307.538,233.092 307.829,232.829 308.092,232.538 308.326,232.222 308.528,231.886 308.695,231.531 308.828,231.161 308.923,230.78 308.981,230.392 309,230" />
  <polyline
     style="fill:none;stroke:#000000;stroke-width:0.5"
     id="polyline808"
     points="76.25,402.5 76.25,57.5" />
  <polyline
     style="fill:none;stroke:#000000;stroke-width:0.5"
     id="polyline810"
     points="76.25,402.5 69.395,402.5" />
  <polyline
     style="fill:none;stroke:#000000;stroke-width:0.5"
     id="polyline812"
     points="76.25,345 69.395,345" />
  <polyline
     style="fill:none;stroke:#000000;stroke-width:0.5"
     id="polyline814"
     points="76.25,287.5 69.395,287.5" />
  <polyline
     style="fill:none;stroke:#000000;stroke-width:0.5"
     id="polyline816"
     points="76.25,230 69.395,230" />
  <polyline
     style="fill:none;stroke:#000000;stroke-width:0.5"
     id="polyline818"
     points="76.25,172.5 69.395,172.5" />
  <polyline
     style="fill:none;stroke:#000000;stroke-width:0.5"
     id="polyline820"
     points="76.25,115 69.395,115" />
  <polyline
     style="fill:none;stroke:#000000;stroke-width:0.5"
     id="polyline822"
     points="76.25,57.5 69.395,57.5" />
  <polyline
     style="fill:none;stroke:#000000;stroke-width:0.5"
     id="polyline824"
     points="76.25,388.125 72.1372,388.125" />
  <polyline
     style="fill:none;stroke:#000000;stroke-width:0.5"
     id="polyline826"
     points="76.25,373.75 72.1372,373.75" />
  <polyline
     style="fill:none;stroke:#000000;stroke-width:0.5"
     id="polyline828"
     points="76.25,359.375 72.1372,359.375" />
  <polyline
     style="fill:none;stroke:#000000;stroke-width:0.5"
     id="polyline830"
     points="76.25,330.625 72.1372,330.625" />
  <polyline
     style="fill:none;stroke:#000000;stroke-width:0.5"
     id="polyline832"
     points="76.25,316.25 72.1372,316.25" />
  <polyline
     style="fill:none;stroke:#000000;stroke-width:0.5"
     id="polyline834"
     points="76.25,301.875 72.1372,301.875" />
  <polyline
     style="fill:none;stroke:#000000;stroke-width:0.5"
     id="polyline836"
     points="76.25,273.125 72.1372,273.125" />
  <polyline
     style="fill:none;stroke:#000000;stroke-width:0.5"
     id="polyline838"
     points="76.25,258.75 72.1372,258.75" />
  <polyline
     style="fill:none;stroke:#000000;stroke-width:0.5"
     id="polyline840"
     points="76.25,244.375 72.1372,244.375" />
  <polyline
     style="fill:none;stroke:#000000;stroke-width:0.5"
     id="polyline842"
     points="76.25,215.625 72.1372,215.625" />
  <polyline
     style="fill:none;stroke:#000000;stroke-width:0.5"
     id="polyline844"
     points="76.25,201.25 72.1372,201.25" />
  <polyline
     style="fill:none;stroke:#000000;stroke-width:0.5"
     id="polyline846"
     points="76.25,186.875 72.1372,186.875" />
  <polyline
     style="fill:none;stroke:#000000;stroke-width:0.5"
     id="polyline848"
     points="76.25,158.125 72.1372,158.125" />
  <polyline
     style="fill:none;stroke:#000000;stroke-width:0.5"
     id="polyline850"
     points="76.25,143.75 72.1372,143.75" />
  <polyline
     style="fill:none;stroke:#000000;stroke-width:0.5"
     id="polyline852"
     points="76.25,129.375 72.1372,129.375" />
  <polyline
     style="fill:none;stroke:#000000;stroke-width:0.5"
     id="polyline854"
     points="76.25,100.625 72.1372,100.625" />
  <polyline
     style="fill:none;stroke:#000000;stroke-width:0.5"
     id="polyline856"
     points="76.25,86.25 72.1372,86.25" />
  <polyline
     style="fill:none;stroke:#000000;stroke-width:0.5"
     id="polyline858"
     points="76.25,71.875 72.1372,71.875" />
  <polyline
     style="fill:none;stroke:#000000;stroke-width:0.5"
     id="polyline860"
     points="76.25,402.5 533.75,402.5" />
  <polyline
     style="fill:none;stroke:#000000;stroke-width:0.5"
     id="polyline862"
     points="76.25,402.5 76.25,407.675" />
  <polyline
     style="fill:none;stroke:#000000;stroke-width:0.5"
     id="polyline864"
     points="152.5,402.5 152.5,407.675" />
  <polyline
     style="fill:none;stroke:#000000;stroke-width:0.5"
     id="polyline866"
     points="228.75,402.5 228.75,407.675" />
  <polyline
     style="fill:none;stroke:#000000;stroke-width:0.5"
     id="polyline868"
     points="305,402.5 305,407.675" />
  <polyline
     style="fill:none;stroke:#000000;stroke-width:0.5"
     id="polyline870"
     points="381.25,402.5 381.25,407.675" />
  <polyline
     style="fill:none;stroke:#000000;stroke-width:0.5"
     id="polyline872"
     points="457.5,402.5 457.5,407.675" />
  <polyline
     style="fill:none;stroke:#000000;stroke-width:0.5"
     id="polyline874"
     points="533.75,402.5 533.75,407.675" />
  <polyline
     style="fill:none;stroke:#000000;stroke-width:0.5"
     id="polyline876"
     points="95.3125,402.5 95.3125,405.605" />
  <polyline
     style="fill:none;stroke:#000000;stroke-width:0.5"
     id="polyline878"
     points="114.375,402.5 114.375,405.605" />
  <polyline
     style="fill:none;stroke:#000000;stroke-width:0.5"
     id="polyline880"
     points="133.438,402.5 133.438,405.605" />
  <polyline
     style="fill:none;stroke:#000000;stroke-width:0.5"
     id="polyline882"
     points="171.563,402.5 171.563,405.605" />
  <polyline
     style="fill:none;stroke:#000000;stroke-width:0.5"
     id="polyline884"
     points="190.625,402.5 190.625,405.605" />
  <polyline
     style="fill:none;stroke:#000000;stroke-width:0.5"
     id="polyline886"
     points="209.688,402.5 209.688,405.605" />
  <polyline
     style="fill:none;stroke:#000000;stroke-width:0.5"
     id="polyline888"
     points="247.813,402.5 247.813,405.605" />
  <polyline
     style="fill:none;stroke:#000000;stroke-width:0.5"
     id="polyline890"
     points="266.875,402.5 266.875,405.605" />
  <polyline
     style="fill:none;stroke:#000000;stroke-width:0.5"
     id="polyline892"
     points="285.938,402.5 285.938,405.605" />
  <polyline
     style="fill:none;stroke:#000000;stroke-width:0.5"
     id="polyline894"
     points="324.063,402.5 324.063,405.605" />
  <polyline
     style="fill:none;stroke:#000000;stroke-width:0.5"
     id="polyline896"
     points="343.125,402.5 343.125,405.605" />
  <polyline
     style="fill:none;stroke:#000000;stroke-width:0.5"
     id="polyline898"
     points="362.188,402.5 362.188,405.605" />
  <polyline
     style="fill:none;stroke:#000000;stroke-width:0.5"
     id="polyline900"
     points="400.313,402.5 400.313,405.605" />
  <polyline
     style="fill:none;stroke:#000000;stroke-width:0.5"
     id="polyline902"
     points="419.375,402.5 419.375,405.605" />
  <polyline
     style="fill:none;stroke:#000000;stroke-width:0.5"
     id="polyline904"
     points="438.438,402.5 438.438,405.605" />
  <polyline
     style="fill:none;stroke:#000000;stroke-width:0.5"
     id="polyline906"
     points="476.563,402.5 476.563,405.605" />
  <polyline
     style="fill:none;stroke:#000000;stroke-width:0.5"
     id="polyline908"
     points="495.625,402.5 495.625,405.605" />
  <polyline
     style="fill:none;stroke:#000000;stroke-width:0.5"
     id="polyline910"
     points="514.688,402.5 514.688,405.605" />
  <text
     style="font-size:10px;font-style:normal;font-weight:normal;fill:#000000;font-family:SansSerif"
     id="text912"
     font-weight="normal"
     font-style="normal"
     font-size="10"
     y="419"
     x="40">9.999850e-001</text>
  <text
     style="font-size:10px;font-style:normal;font-weight:normal;fill:#000000;font-family:SansSerif"
     id="text914"
     font-weight="normal"
     font-style="normal"
     font-size="10"
     y="419"
     x="117">9.999900e-001</text>
  <text
     style="font-size:10px;font-style:normal;font-weight:normal;fill:#000000;font-family:SansSerif"
     id="text916"
     font-weight="normal"
     font-style="normal"
     font-size="10"
     y="419"
     x="193">9.999950e-001</text>
  <text
     style="font-size:10px;font-style:normal;font-weight:normal;fill:#000000;font-family:SansSerif"
     id="text918"
     font-weight="normal"
     font-style="normal"
     font-size="10"
     y="419"
     x="268">1.000000e+000</text>
  <text
     style="font-size:10px;font-style:normal;font-weight:normal;fill:#000000;font-family:SansSerif"
     id="text920"
     font-weight="normal"
     font-style="normal"
     font-size="10"
     y="419"
     x="344">1.000005e+000</text>
  <text
     style="font-size:10px;font-style:normal;font-weight:normal;fill:#000000;font-family:SansSerif"
     id="text922"
     font-weight="normal"
     font-style="normal"
     font-size="10"
     y="419"
     x="420">1.000010e+000</text>
  <text
     style="font-size:10px;font-style:normal;font-weight:normal;fill:#000000;font-family:SansSerif"
     id="text924"
     font-weight="normal"
     font-style="normal"
     font-size="10"
     y="419"
     x="496">1.000015e+000</text>
</svg>
